<?xml version="1.0" encoding="utf-8"?>
<!-- Generator: Adobe Illustrator 25.3.1, SVG Export Plug-In . SVG Version: 6.00 Build 0)  -->
<svg version="1.1" id="Layer_1" xmlns="http://www.w3.org/2000/svg" xmlns:xlink="http://www.w3.org/1999/xlink" x="0px" y="0px"
	 viewBox="0 0 23 23" style="enable-background:new 0 0 23 23;" xml:space="preserve">
<style type="text/css">
	.st0{fill:#FFFFFF;}
</style>
<path class="st0" d="M19.178,4.373c-1.432-0.67-2.963-1.157-4.563-1.434c-0.197,0.356-0.426,0.833-0.584,1.214
	c-1.702-0.256-3.387-0.256-5.058,0c-0.158-0.38-0.393-0.858-0.591-1.214C6.778,3.216,5.246,3.705,3.814,4.377
	c-2.888,4.364-3.671,8.62-3.279,12.815c1.916,1.43,3.772,2.299,5.597,2.868c0.451-0.62,0.852-1.28,1.199-1.974
	c-0.659-0.251-1.291-0.56-1.888-0.919c0.158-0.117,0.313-0.24,0.463-0.366c3.639,1.702,7.594,1.702,11.19,0
	c0.151,0.126,0.306,0.249,0.463,0.366c-0.598,0.361-1.231,0.67-1.891,0.92c0.346,0.693,0.746,1.354,1.199,1.974
	c1.827-0.568,3.685-1.437,5.6-2.87C22.925,12.328,21.681,8.111,19.178,4.373z M7.826,14.611c-1.093,0-1.989-1.02-1.989-2.262
	c0-1.242,0.877-2.264,1.989-2.264c1.111,0,2.008,1.02,1.989,2.264C9.816,13.591,8.937,14.611,7.826,14.611z M15.174,14.611
	c-1.092,0-1.989-1.02-1.989-2.262c0-1.242,0.877-2.264,1.989-2.264s2.008,1.02,1.989,2.264
	C17.163,13.591,16.286,14.611,15.174,14.611z"/>
</svg>
