<svg width="170" height="41" viewBox="0 0 170 41" fill="none" xmlns="http://www.w3.org/2000/svg">
<path d="M0 9.98917H6.54184V33.8171C6.54184 37.2149 9.36701 39.9814 12.7949 39.9814H27.04V33.8171H15.5636C14.4272 33.8171 13.5169 32.9259 13.5169 31.7871V0L0 9.98917Z" fill="white"/>
<path d="M40.5569 4.99459H27.04V0L13.5169 9.98917H27.04V14.9838L40.5569 4.99459Z" fill="white"/>
<path d="M67.5969 10.2429C67.5969 7.08649 65.3242 4.99458 62.543 4.99458H50.5015V20.6468H54.4128V15.516H59.3851C59.9501 18.4434 62.5556 20.6468 65.6884 20.6468H67.214V17.0385H66.1467C64.9978 17.0385 64.0121 16.3887 63.5161 15.4417C65.8265 15.0023 67.6032 13.0528 67.6032 10.2429H67.5969ZM61.3188 11.9016H54.4065V8.60282H61.3188C62.9323 8.60282 63.6856 9.25267 63.6856 10.2429C63.6856 11.2332 62.926 11.9016 61.3188 11.9016Z" fill="white"/>
<path d="M96.985 20.6468H106.302V17.0323H97.4433C95.8047 17.0323 94.48 15.7264 94.48 14.1111V4.99458H90.5687V14.3215C90.5687 17.8122 93.4441 20.6468 96.985 20.6468Z" fill="white"/>
<path d="M88.3023 11.7407C88.3023 7.69302 85.565 4.99458 81.4654 4.99458H76.3361C72.2302 4.99458 69.4992 7.69302 69.4992 11.7407V13.9069C69.4992 17.9545 72.2365 20.6529 76.3361 20.6529H81.4654C85.5713 20.6529 88.3023 17.9545 88.3023 13.9069V11.7407ZM84.3973 13.9069C84.3973 15.7821 83.2233 17.0385 81.4654 17.0385H76.3361C74.5783 17.0385 73.4042 15.7883 73.4042 13.9069V11.7407C73.4042 9.86539 74.5783 8.60901 76.3361 8.60901H81.4654C83.2233 8.60901 84.3973 9.8592 84.3973 11.7407V13.9069Z" fill="white"/>
<path d="M126.317 20.6468H130.228V4.99458H123.146V8.609H126.317V20.6468Z" fill="white"/>
<path d="M149.904 20.6468V4.99458H145.992V18.6044L139.984 4.99458H132.802V20.6468H136.707V6.65945L142.891 20.6468H149.904Z" fill="white"/>
<path d="M167.558 11.0166H159.986V14.631H166.095V17.0385H159.007C157.249 17.0385 156.075 15.7883 156.075 13.9069V11.7407C156.075 9.86539 157.249 8.60901 159.007 8.60901H169.021V4.99458H159.007C154.901 4.99458 152.17 7.69302 152.17 11.7407V13.9069C152.17 17.9545 154.907 20.6529 159.007 20.6529H167.558C169.021 20.6529 170 19.6875 170 18.2454V13.4303C170 11.9882 169.021 11.0227 167.558 11.0227V11.0166Z" fill="white"/>
<path d="M33.7953 29.1939H39.2762V40H42.7857V29.1939H48.2665V25.9508H33.7953V29.1939Z" fill="white"/>
<path d="M62.3296 31.3539H53.9985V25.9508H50.4952V40H53.9985V34.5969H62.3296V40H65.8391V25.9508H62.3296V31.3539Z" fill="white"/>
<path d="M81.5219 33.9471C81.5219 35.6305 80.4672 36.7569 78.8913 36.7569H74.5092C72.9334 36.7569 71.8786 35.6305 71.8786 33.9471V25.9508H68.3692V33.9471C68.3692 37.5801 70.8239 40 74.5092 40H78.8913C82.5766 40 85.0314 37.5801 85.0314 33.9471V25.9508H81.5219V33.9471Z" fill="white"/>
<path d="M99.3958 38.1618L94.0029 25.9508H87.5552V40H91.0647V27.4424L96.6146 40H102.905V25.9508H99.3958V38.1618Z" fill="white"/>
<path d="M115.072 25.9508H105.423V40H115.072C118.758 40 121.212 37.5801 121.212 33.9471V32.0037C121.212 28.3707 118.758 25.9508 115.072 25.9508ZM117.703 33.9471C117.703 35.6305 116.648 36.7569 115.072 36.7569H108.932V29.1939H115.072C116.654 29.1939 117.703 30.3203 117.703 32.0037V33.9471Z" fill="white"/>
<path d="M135.087 32.7773C135.615 32.1523 135.922 31.3291 135.922 30.2708C135.922 27.6775 134.56 25.9508 130.617 25.9508H122.725V29.1939H130.73C131.848 29.1939 132.419 29.6271 132.419 30.277C132.419 30.9268 131.961 31.36 130.642 31.36H125.161V34.6031H130.843C132.268 34.6031 132.902 35.0364 132.902 35.6862C132.902 36.3361 132.287 36.7693 130.711 36.7693H122.732V40.0124H131.063C135.1 40.0124 136.412 38.2856 136.412 35.6862C136.412 34.4298 135.928 33.4829 135.1 32.7897L135.087 32.7773Z" fill="white"/>
<path d="M155.968 29.1939H164.977L155.968 36.7569V40H170V36.7569H160.985L170 29.1939V25.9508H155.968V29.1939Z" fill="white"/>
<path d="M114.432 20.6468H123.749V17.0323H114.89C113.252 17.0323 111.927 15.7264 111.927 14.1111V4.99458H108.016V14.3215C108.016 17.8122 110.891 20.6468 114.432 20.6468Z" fill="white"/>
<path d="M153.79 30.6607C153.79 27.8323 151.749 25.9508 149.251 25.9508H138.44V40H141.949V35.3953H146.413C146.921 38.0195 149.257 40 152.07 40H153.438V36.7631H152.478C151.442 36.7631 150.557 36.1752 150.117 35.3334C152.195 34.9373 153.784 33.192 153.784 30.6669L153.79 30.6607ZM148.152 32.1523H141.949V29.1939H148.152C149.602 29.1939 150.28 29.7756 150.28 30.6669C150.28 31.5581 149.602 32.1584 148.152 32.1584V32.1523Z" fill="white"/>
</svg>
